<!doctype html>
<html class="no-js" lang="en" ng-app="app">
    <head>
              
  
              	    	    		  		  	  	  		  		  		  	      
              
        
          <!--Begin html_head.vtl-->
		<meta charset="utf-8">
		<meta http-equiv="x-ua-compatible" content="ie=edge">
		<meta name="viewport" content="width=device-width, initial-scale=1.0">
		<meta name="application-name" content="PFW.edu">
		<meta name="description" content="Purdue University Fort Wayne is the largest public university in northeast Indiana, offering nearly 200 prestigious degrees and certificates.">
				<meta name="lastModifiedDate" content="2018-10-29 16:35:40.952">
                         
                <title>Purdue University Fort Wayne</title>
        		
		<!-- PFW Style Guide CSS -->
		<link rel="stylesheet" href="//www.pfw.edu/application/themes/modernization-1.0/assets/vendor/foundation/css/app.min.css?mod=0817181009AM">
        <link rel="stylesheet" href="//www.pfw.edu/application/themes/modernization-1.0/assets/css/style.min.css?mod=0817181004AM">
        <link rel="stylesheet" href="//www.pfw.edu/application/themes/modernization-1.0/assets/css/style-guide.min.css?mod=081718947AM">

		<!-- Custom Ethode CSS -->
        <link href="/DOTLESS//www.pfw.edu/application/themes/modernization-1.0/css/pfw.css?mod=081718947AM" rel="stylesheet"/>    

		<!-- Typography.com Cloud Fonts -->
		<link rel="stylesheet" type="text/css" href="https://cloud.typography.com/6271056/6418392/css/fonts.css" />

		<!-- Purdue Fort Wayne Theme Overrides -->
                        <link rel="stylesheet" href="/application/themes/modernization-1.0/css/pfw_phase_one_overrides.css?mod=103018339PM">
		
        <!-- Font Awesome -->
		<script src="https://use.fontawesome.com/79c02d8743.js"></script> <!-- FontAwesome CDN Adds Accessible Tags to Icons -->

		<!--Begin Google Analytics-->

        <script>
          (function(i,s,o,g,r,a,m){i['GoogleAnalyticsObject']=r;i[r]=i[r]||function(){
          (i[r].q=i[r].q||[]).push(arguments)},i[r].l=1*new Date();a=s.createElement(o),
          m=s.getElementsByTagName(o)[0];a.async=1;a.src=g;m.parentNode.insertBefore(a,m)
          })(window,document,'script','//www.google-analytics.com/analytics.js','ga');
        
          ga('create', 'UA-4016513-1', 'auto');
          ga('send', 'pageview');
        
        </script>
  
        <!--End Google Analytics-->  


        <!-- Google Tag Manager -->
        <script>(function(w,d,s,l,i){w[l]=w[l]||[];w[l].push({'gtm.start':
        new Date().getTime(),event:'gtm.js'});var f=d.getElementsByTagName(s)[0],
        j=d.createElement(s),dl=l!='dataLayer'?'&l='+l:'';j.async=true;j.src=
        'https://www.googletagmanager.com/gtm.js?id='+i+dl;f.parentNode.insertBefore(j,f);
        })(window,document,'script','dataLayer','GTM-M33JW54');</script>
        <!-- End Google Tag Manager -->

		<!-- Begin Ping for Slate (Admissions) -->
        <script async="async" src="https://apply.pfw.edu/ping">/**/</script>
        <!-- End Ping -->
		
<!--End html_head.vtl-->
      
      
  
          <meta property="og:image" content="https://www.pfw.edu/images/social-sharing/homepage-facebook-image-1200x630.jpg" /> <!-- Facebook share/post image -->
    <meta name="twitter:image" content="https://www.pfw.edu/images/social-sharing/homepage-twitter-image-280x150.jpg" />

    </head>

	<body>
        <!-- Google Tag Manager (noscript) -->
        <noscript><iframe src="https://www.googletagmanager.com/ns.html?id=GTM-M33JW54"
height="0" width="0" style="display:none;visibility:hidden"></iframe></noscript>
        <!-- End Google Tag Manager (noscript) -->
        
        <div class="above-footer-wrapper-pfw-added">
        <div class="homepage-alert-pfw-added">
                                       		
           </div>
		<header>
						      
  
              	    	    		  		  	  	  		  		  		  	      
              
        
          <!--Begin header.vtl-->
<div class="skip-links-pfw-added"><a href="#main-body">Skip to Main Content ↓</a></div>



<div class="header__top-nav">
    <div class="row full-width">
        <div class="small-12 columns">

            <div class="title-bar header__top-nav-mobile-wrapper show-for-medium" data-responsive-toggle="top-nav" data-hide-for="large">
                <div class="row full-width">
                    <div class="small-3 columns">
                        <div class="title-bar-title header__top-nav-mobile-link" data-toggle="top-nav">
                            I Am <i class="fa fa-caret-down" aria-hidden="true"></i>
                        </div>
                    </div> <!--/small-3 columns-->
                    <div class="small-6 columns text-center">
                        <div class="title-bar-title">
                            <ul class="menu large-horizontal header__top-nav--standout-pfw-added">
                                <li>
                                    <a href="/apply/" class="header__top-nav-link">
                                        <i class="fa fa-pencil" aria-hidden="true"></i> Apply
                                    </a>
                                </li>
                                <li>
                                    <a href="/visit/" class="header__top-nav-link">
                                        <i class="fa fa-map-marker" aria-hidden="true"></i> Visit
                                    </a>
                                </li>
                                <li>
                                    <a href="/admissions/request-for-information.html" class="header__top-nav-link">
                                        <i class="fa fa-info" aria-hidden="true"></i> Info
                                    </a>
                                </li>
                            </ul>
                        </div> <!--/title-bar-title-->
                    </div> <!--/small-6 columns-->
                    <div class="small-3 columns">
                        <a class="title-bar-title header__top-nav-link float-right nav-search-pfw-added header__top-nav-link--standout--pfw-added" href="/search/results.html">
                                <i class="fa fa-search"></i> Search
                        </a>
                    </div> <!--/small-3 columns-->
                </div> <!--/row full-width-->
            </div> <!--/title-bar header__top-nav-mobile-wrapper show-for-medium-->

            <div id="top-nav">
                  
  
              	    	    		  		  	  	  		  		  		  	      
              
        
          <!--Begin header_navigation.vtl-->

<ul class="menu vertical large-horizontal float-left header__top-nav-mobile-drilldown" data-responsive-menu="drilldown large-dropdown"
    data-disable-hover="true" data-click-open="true">
                        
        <li class="hide-for-large">
            <a href="/applicants" class="header__top-nav-link">An Applicant</a>
        </li>
        <li class="hide-for-large">
            <a href="/students" class="header__top-nav-link">A Student</a>
        </li>
        <li class="hide-for-large">
            <a href="/alumni" class="header__top-nav-link">An Alumnus</a>
        </li>
        <li class="hide-for-large">
            <a href="/visitors" class="header__top-nav-link">A Visitor</a>
        </li>
</ul>


      
      
  
                    
  
              	    	    		  		  	  	  		  		  		  	      
              
        
          <!--Begin eyebrow_menu.vtl-->
    <ul class="menu vertical large-horizontal float-left show-for-large header__top-nav--fix-border-pfw-added">
        <li>
            <a href="/applicants" class="header__top-nav-link">Applicants</a>
        </li>
        <li>
            <a href="/students" class="header__top-nav-link">Students</a>
        </li>
        <li>
            <a href="/alumni" class="header__top-nav-link">Alumni</a>
        </li>
        <li>
            <a href="/visitors" class="header__top-nav-link">Visitors</a>
        </li>
    </ul>
    <ul class="menu vertical large-horizontal float-right show-for-large header__top-nav--standout-pfw-added" id="predictiveSearch">
        <li>
            <a href="/apply/" class="header__top-nav-link">
            <i class="fa fa-pencil" aria-hidden="true"></i> Apply
            
            </a>
        </li>
        <li>
            <a href="/visit/" class="header__top-nav-link">
            <i class="fa fa-map-marker" aria-hidden="true"></i> Visit
            </a>
        </li>
        <li>
            <a href="/admissions/request-for-information.html" class="header__top-nav-link">
            <i class="fa fa-info" aria-hidden="true"></i> Request Info
            </a>
        </li>
        <li><a href="/search/results.html" class="header__top-nav-link"><i class="fa fa-search"></i> Search</a></li>

        <!-- Predictive Search dropdown -->
        <!-- <div ng-cloak>
            <div class="search-bar" ng-show="showSearchDropdown">
                <div class="small-offset-2 small-8 main-search-container">
                    <div class="row m-w-n">
                        <div class="small-1 columns"><i class="fa fa-search search-icon" ng-click="getSearchResults()"></i></div>
                        <div class="small-10 columns"><input type="text" class="search-input" ng-model="searchTerm" id="search" ng-change="isLoading = true" ng-keydown="$event.keyCode === 13 && getSearchResults()" style="border:none!important"></div>
                        <div class="small-1 columns"><i class="fa fa-close close-icon" ng-click="showSearchDropdown = !showSearchDropdown"></i></div>
                    </div>
                </div>
            </div>
            <div class="small-offset-2 small-8 result-container" ng-show="searchTerm.length > 0 && showSearchDropdown">
                <ul class="no-bullet">
                    <li ng-show="isLoading" class="text-center"><i class="fa fa-spinner fa-spin fa-2x loading-icon"></i></li>
                    <li ng-repeat="item in filteredArray" ng-hide="isLoading" class="hover-highlight clearfix" ng-class="{'result-last':$last}" ng-click="goTo(item.url)"> 
                        <div class="small-offset-1 small-10"><p ng-bind-html="item.term" class="result-text"></p></div>
                        <p class="small-offset-1 small-10 breadcrumb-text result-breadcrumb">{{item.url}}</p>
                    </li>
                    <li ng-show="filteredArray.length < 1 && !isLoading" class="small-offset-1 small-10"><p class="result-text margin-bottom-1">No results found.</p></li>
                </ul>
            </div>
        </div> -->
    </ul>
<!--End eyebrow_menu.vtl-->
      
      
  
              </div>
        </div>
    </div>
</div>


<div class="header__logo-nav-container">
    <div class="row full-width collapse" data-equalizer="header">
        <div class="small-8 medium-12 large-2 columns header__logo-wrapper" data-equalizer-watch="header">
            <a class="header__logo-link" href="/">
                <img src="//www.pfw.edu/application/themes/modernization-1.0/img/pfw-white.png" alt="Purdue University Fort Wayne Logo" class="header__logo" />
            </a>
        </div>
        <div class="medium-12 large-3 columns show-for-large" data-equalizer-watch="header">
                          
  
              	    	    		  		  	  	  		  		  		  	      
              
        
          

    
            
                    
                


      
      
  
          </div>
          
  
              	    	    		  		  	  	  		  		  		  	      
              
        
          <!--Begin main_navigation.vtl-->
<div class="small-4 medium-12 large-7 columns header__secondary-nav" data-equalizer-watch="header">
    <div class="title-bar text-right" data-responsive-toggle="secondarynavmobile" data-hide-for="medium">
        <button id="secondarynavmobile-button" class="pfw-hamburger-button" type="button" data-toggle="secondarynavmobile">
            <i class="fa fa-bars fa-2x pfw-hamburger" aria-hidden="true"></i>
        </button>
    </div>
    <!-- Flood Nav Controls -->
        <ul class="non-tabs--pfw-added show-for-medium" id="floodtabs">
        <li class="tabs-title">
            <a href="/admissions">Admissions</a>
        </li>
        <li class="tabs-title">
            <a href="/academics">Academics</a>
        </li>
        <li class="tabs-title">
            <a href="/research">Research</a>
        </li>
        <li class="tabs-title">
            <a href="/campus">Campus</a>
        </li>
        <li class="tabs-title">
            <a href="/athletics">Athletics</a>
        </li>
        <li class="tabs-title">
            <a href="/support">Support</a>
        </li>
        <li class="tabs-title">
            <a href="/about">About</a>
        </li>
    </ul>
    <!-- Flood Nav Controls\ -->
</div>
<!--Flood Nav Controls Mobile-->
<div class="row full-width show-for-small-only" id="secondarynavmobile">
    <div class="small-12 columns">
        <ul class="tabs vertical" data-responsive-toggle="secondarynavmobile" id="floodtabsmobile">
            <li class="tabs-title mobile-tab-title" data-toggle="secondarynavmobile">
                <a href="/admissions">Admissions</a>
            </li>
            <li class="tabs-title mobile-tab-title" data-toggle="secondarynavmobile">
                <a href="/academics">Academics</a>
            </li>
            <li class="tabs-title mobile-tab-title" data-toggle="secondarynavmobile">
                <a href="/research">Research</a>
            </li>
            <li class="tabs-title mobile-tab-title" data-toggle="secondarynavmobile">
                <a href="/campus">Campus</a>
            </li>
            <li class="tabs-title mobile-tab-title" data-toggle="secondarynavmobile">
                <a href="/athletics">Athletics</a>
            </li>
            <li class="tabs-title mobile-tab-title" data-toggle="secondarynavmobile">
                <a href="/support">Support</a>
            </li>
            <li class="tabs-title mobile-tab-title" data-toggle="secondarynavmobile">
                <a href="/about">About</a>
            </li>
            <li class="tabs-title mobile-tab-title mobile-tab-title--secondary-pfw-added" data-toggle="secondarynavmobile">
                <a href="/applicants">Applicants</a>
            </li>
            <li class="tabs-title mobile-tab-title mobile-tab-title--secondary-pfw-added" data-toggle="secondarynavmobile">
                <a href="/students">Students</a>
            </li>
            <li class="tabs-title mobile-tab-title mobile-tab-title--secondary-pfw-added" data-toggle="secondarynavmobile">
                <a href="/alumni">Alumni</a>
            </li>
            <li class="tabs-title mobile-tab-title mobile-tab-title--secondary-pfw-added" data-toggle="secondarynavmobile">
                <a href="/visitors">Visitors</a>
            </li>
        </ul>
    </div>
</div>
<!--Flood Nav Controls Mobile-->
</div>
<!--/row full-width-->

 <div class="row full-width collapse show-for-small-only" id="mobilenavbuttons" style="color:#fff;">
    <div class="small-3 columns nav-button">
        <a class="first" href="/apply/">
            <i class="fa fa-pencil" aria-hidden="true"></i>
            Apply
        </a>
    </div>
    <div class="small-3 columns nav-button">
        <a href="/visit/">
            <i class="fa fa-map-marker" aria-hidden="true"></i>
            Visit
        </a>
    </div>
    <div class="small-3 columns nav-button">
        <a href="/admissions/request-for-information.html">
            <i class="fa fa-info" aria-hidden="true"></i>
            Info
        </a>
    </div>
    <div class="small-3 columns nav-button">
        <a href="/search/results.html">
            <i class="fa fa-search"></i>
            Search
        </a>
    </div>


<!--End main_navigation.vtl-->
      
      
  
      </div> <!--/row full-width-->
</div> <!--/header__logo-wrapper-->
                
                
      
      
  
  					</header>
        
        <main>
            <div class="main-body" id="main-body">
                                       		     	
		   
			         				         		
   		       
	     
<!--We Are Purdue University Fort Wayne-->

<div class="row full-width collapse">
    <div class="small-12 columns homepage-banner-overlay-wrapper--added-by-pfw">
        <div class="homepage-banner-overlay--added-by-pfw"></div>
        <div class="text-center cover-image" id="we-are-purdue-university-fort-wayne"
                data-interchange="[/images/homepage-banners/images/hero3-1029-640x360.jpg, small],
                [/images/homepage-banners/images/hero3-1029-1024x576.jpg, medium],
                [/images/homepage-banners/images/hero3-1029-1200x675.jpg, large],
                [/images/homepage-banners/images/hero3-1029-1440x810.jpg, xlarge],
                [/images/homepage-banners/images/hero3-1029-2000x1125.jpg, xxlarge],
                [/images/homepage-banners/images/hero3-1029-2500x1406.jpg, xxxlarge]" role="img" aria-label="Professor and students in the physics Classroom">
            <img class="float-center" src="/application/themes/modernization-1.0/img/blank-we-are-940px-high-compressed.png" alt="" />             
        </div>
        <div class="we-are--added-by-pfw">
             <!-- BEGIN "WE ARE" AND ARROW -->
            <img tabindex="0" class="float-center"
                    src="/images/homepage-banners/text-overlay/we-are-purdue-university-fort-wayne.png"
                    alt="We are Purdue University Fort Wayne">
            <a href="#continue" class="button--circle smooth-scrolling-pfw-added"><i class="fa fa-arrow-down"></i></a>
            <!-- END "WE ARE" AND ARROW -->
        </div>
    </div> <!--/small-12 columns -->
</div> <!--/row full-width-->

<!--End We Are Purdue University Fort Wayne-->
         
   
            <a href="" name="continue"></a>

                                       		 <!--Stats-->

<div class="row full-width text-center" id="pfw--stats">

                 	
		   
			         				         		
   		       
	     
<div class="small-12 medium-4 large-4 columns">
    <div class="pfw--stat" tabindex="0">
        <div class="pfw--stat-large-text">
                                    1,500+
                                <div class="line"></div>
        </div>
        <div class="pfw--stat-sub-text">
                            Events on campus each year
                    </div>
    </div>
</div>            	
		   
			         				         		
   		       
	     
<div class="small-12 medium-4 large-4 columns">
    <div class="pfw--stat" tabindex="0">
        <div class="pfw--stat-large-text">
                                    60,712
                                <div class="line"></div>
        </div>
        <div class="pfw--stat-sub-text">
                            Alumni of Purdue Fort Wayne
                    </div>
    </div>
</div>            	
		   
			         				         		
   		       
	     
<div class="small-12 medium-4 large-4 columns">
    <div class="pfw--stat" tabindex="0">
        <div class="pfw--stat-large-text">
                                    4
                                <div class="line"></div>
        </div>
        <div class="pfw--stat-sub-text">
                            Fulbright Scholars in four years
                    </div>
    </div>
</div>        </div>

<!--end Stats--> 
   
                                       		     	
		   
			         				         		
   		       
	     
<div class="row full-width collapse" data-equalizer="programs-columns" data-equalize-on="large">
        <div class="small-12 medium-12 large-6 columns first" data-equalizer-watch="programs-columns" id="academic-img--pfw-added">
                <div style="width:100%;height:100%" class="cover-image expand-full-size" data-interchange="
                [/images/homepage-steam-business/academic-1029-950x950.jpg, large],
                [/images/homepage-steam-business/academic-1029-950x950.jpg, xlarge],
                [/images/homepage-steam-business/academic-1029-1200x1200.jpg, xxlarge]" role="img" aria-label="Female vocal student performing">
                </div>
                <div class="hide-for-large">
                    <img data-interchange="[/images/homepage-steam-business/academic-1029-640x360.jpg, small], [/images/homepage-steam-business/academic-1029-1024x576.jpg, medium]" alt="Female vocal student performing" />
                </div>
        </div>
        <div class="small-12 medium-12 large-6 columns" id="programs-search" data-equalizer-watch="programs-columns">
            <div id="programs-search-container">
                <!-- <div id="yellow-lines">
                    <img src="/application/themes/modernization-1.0/img/yellow-lines.png">
                </div> --> <!--/yellow-lines-->
                <div id="programs-search-contents">
                    <div id="programs-search-header" tabindex="0">
                        Find Your Passion
                    </div> <!--/programs-search-header-->
                    <p id="programs-search-text" tabindex="0">
                        Inspire your heart and mind. Whether you see yourself experimenting in a lab, sharing your art with the world, or growing into a titan of business, your future begins here, with more than 200 degrees and programs.
                    </p> <!--/programs-search-text-->
                                            <a class="button button--pfw-yellow" href="/academics/programs/">Explore your options</a>
                                    </div> <!--/programs-search-contents-->
            </div> <!--/programs-search-container-->
            
                                <div id="what-do-you-want">
                <div id="what-do-you-want-title" tabindex="0">
                    Unleash Your Curiosity
                </div>
                <p id="programs-search-text" tabindex="0">
                        If you can imagine it, then you can dive into it. Indulge your interests with guidance and insight from expert faculty members. From math to metaphysics, science to sci-fi, and counseling to clarinet, your courses await.
                    </p> <!--/programs-search-text-->
                                            <a class="button button--pfw-yellow" href="http://catalog.pfw.edu/index.php?catoid=49">Browse the catalog</a>
                                </div> <!--/what-do-you-want-->
                </div> <!--/programs-search-->
</div>         
               
                                       		

               
                                       		 <div class="text-center" id="brand-pillar-two">
    <div class="row full-width">
        <div id="brand-pillar-two-heading">
            Become a Mastodon
            <div class="line"></div>
        </div>
    </div> <!--/row full-width-->
    <div class="row" data-equalizer>
        
                     	
		   
			         				         		
   		       
	     <div class="small-12 medium-6 large-6 columns">
    <div class="pillar-two-card" data-equalizer-watch>
        <img src="/images/cards/primary-card-scholarships.jpg" alt="Two students study in the library." />
        <div class="pillar-two-card-content-wrapper--pfw-added">
            <div class="default-text">
                Find your scholarship
            </div>
            <div class="card-contents">
                Scholarships can reduce your costs. Start looking early so that you can beat the deadlines, then apply, apply, apply.
            </div>
        </div>
        <div class="pillar-two-card-button--pfw-added">
            <a href="https://purdue.ca1.qualtrics.com/jfe/form/SV_07cUg3L5FNR4YNn" class="button button--pfw-brown">Use our calculator</a>
        </div>
    </div>
</div> <!--/small-12 medium-6 columns-->            	
		   
			         				         		
   		       
	     <div class="small-12 medium-6 large-6 columns">
    <div class="pillar-two-card" data-equalizer-watch>
        <img src="/images/cards/primary-card-visit-campus.JPG" alt="A student watches one of the 3D printers on campus." />
        <div class="pillar-two-card-content-wrapper--pfw-added">
            <div class="default-text">
                Schedule a Visit
            </div>
            <div class="card-contents">
                Explore the campus, tour student housing, meet faculty members, and talk with students. Plan your visit today.
            </div>
        </div>
        <div class="pillar-two-card-button--pfw-added">
            <a href="https://www.pfw.edu/visit/" class="button button--pfw-brown">Explore Your Options</a>
        </div>
    </div>
</div> <!--/small-12 medium-6 columns-->            </div>
</div> 
   
                                       		 <div class="text-center" id="brand-pillar-three">
    <div class="row full-width">
        <div id="brand-pillar-three-heading">
            Get Involved on Campus
            <div class="line"></div>
        </div>
    </div> <!--/row full-width-->
    <div class="row" data-equalizer>
                        
                     	
		   
			         				         		
   		       
	     <div class="small-12 medium-4 large-4 columns">
    <div class="pillar-three-card" data-equalizer-watch>
        <img src="/images/cards/secondary-card-chili.jpg" alt="Chancellor Elsenbaumer talks with a student at the chili festival." />
        <div class="pillar-three-card-content-wrapper--pfw-added">
            <div class="default-text">
                Enjoy Chili with the Chancellor
            </div>
            <div class="card-contents">
                Get out of the cold and bring a friend to the Chancellor's Chili Fest on November 6 for fun, music, and (of course) chili.
            </div>
        </div>
        <div class="pillar-three-card-button--pfw-added">
            <a href="https://calendar.pfw.edu/events/chancellor-s-chili-fest-11620181100AM" class="button button--pfw-brown">Save the date</a>
        </div>
    </div>
</div> <!--/small-12 medium-4 columns-->            	
		   
			         				         		
   		       
	     <div class="small-12 medium-4 large-4 columns">
    <div class="pillar-three-card" data-equalizer-watch>
        <img src="/images/cards/secondary-card-DOS.jpg" alt="Our dean of students, Eric Norman, addresses an audience." />
        <div class="pillar-three-card-content-wrapper--pfw-added">
            <div class="default-text">
                Meet the Dean of Students
            </div>
            <div class="card-contents">
                For support with your health, relationships, or dealing with a class, use the services in the Office of the Dean of Students.
            </div>
        </div>
        <div class="pillar-three-card-button--pfw-added">
            <a href="/dean/" class="button button--pfw-brown">Learn more</a>
        </div>
    </div>
</div> <!--/small-12 medium-4 columns-->            	
		   
			         				         		
   		       
	     <div class="small-12 medium-4 large-4 columns">
    <div class="pillar-three-card" data-equalizer-watch>
        <img src="/images/cards/2018-freshman-lead-retreat-card.jpg" alt="Students work together in a team game" />
        <div class="pillar-three-card-content-wrapper--pfw-added">
            <div class="default-text">
                Freshmen in the Woods
            </div>
            <div class="card-contents">
                This year's Freshman Leadership Retreat was a huge success. Take a look at what they did.
            </div>
        </div>
        <div class="pillar-three-card-button--pfw-added">
            <a href="https://www.facebook.com/PurdueFortWayne/posts/10156553032325667" class="button button--pfw-brown">View the gallery</a>
        </div>
    </div>
</div> <!--/small-12 medium-4 columns-->            </div>
</div> 
   
                                       		<div id="news-events-home">
    <div class="row full-width">
        <div class="text-center" id="news-events-heading">
            Explore News and Events
    		<div class="line"></div>
		</div>
	</div> <!--/row full-width-->

			
	 
		
		
	
		
	
	
		
	
		
	

		
		
	<div id="tile-wrapper">
		<div class="row full-width" data-equalizer>

				<!-- ITEM 1 -->
				<!-- Event Item -->
				<div class="custom-large-break columns">
					<a href="https://calendar.pfw.edu/events/faculty-jazz-combo-concert-1152018730PM"> 						<div class="home-event-tile" data-equalizer-watch>
							<div class="row full-width collapse">

																<div class="custom-medium-break columns custom-show-for-small-only">
										<div class="cover-bgimage expand-full-size tile-equalize-height-pfw-added tile-image-pfw-added" style="background-image: url('/contentAsset/raw-data/7d7cdb36-cab6-4446-802c-7b7b22267207/newsAndEventsWidgetImage');">
										</div>
								</div> <!--/small-12 medium-6 columns-->
								<div class="custom-medium-break columns tile-equalize-height-pfw-added">
									<div class="tile-content">
										<div class="tile-type">
										<i class="fa fa-newspaper-o" aria-hidden="true"></i>
										Event
										</div> <!--/tile-type-->
										<div class="tile-title">
											Faculty Jazz Combo Concert
										</div> <!--/tile-title-->
										<p>
											Faculty jazzers offer an evening of original tunes that will inspire your creativity and imagination.
										</p>
									</div> <!--/tile-content-->
								</div> <!--/small-12 medium-6 columns-->

																<div class="custom-medium-break columns custom-hide-for-small-only">
										<div class="cover-bgimage expand-full-size tile-equalize-height-pfw-added tile-image-pfw-added" style="background-image: url('/contentAsset/raw-data/7d7cdb36-cab6-4446-802c-7b7b22267207/newsAndEventsWidgetImage');">
										</div>
								</div> <!--/small-12 medium-6 columns-->
							</div> <!--/row full-width collapse-->
						</div> <!--/home-event-tile -->
					</a>
				</div> <!--/"medium-12 large-6 columns-->
				<!-- /Event Item -->

				<!-- ITEM 2 -->
				<!-- News Item -->
				<div class="custom-large-break columns">
					<a href="/news/detail.html?id=36615237-bc7c-4807-b1b3-50c11040be07"> 						<div class="home-news-tile" data-equalizer-watch>
							<div class="row full-width collapse">

																<div class="custom-medium-break columns custom-hide-for-large">
									<div class="cover-bgimage expand-full-size tile-equalize-height-pfw-added tile-image-pfw-added" style="background-image: url('/news/images/Mastodon-Leaves.jpg');">
									</div>
								</div> <!--/small-12 medium-6 columns-->
								<div class="custom-medium-break columns tile-equalize-height-pfw-added">
									<div class="tile-content">
										<div class="tile-type">
										<i class="fa fa-newspaper-o" aria-hidden="true"></i>
										News
										</div> <!--/tile-type-->
										<div class="tile-title">
											FAFSA Completion Nights
										</div> <!--/tile-title-->
										<p>
											Purdue Fort Wayne&rsquo;s Office of Financial Aid is hosting one of several planned FAFSA Completion Nights on Wednesday, November 7, from 4:30 to 6:30 p.m. in the Helmke Library.
										</p>
									</div> <!--/tile-content-->
								</div> <!--/small-12 medium-6 columns-->

																<div class="custom-medium-break columns custom-show-for-large">
									<div class="cover-bgimage expand-full-size tile-equalize-height-pfw-added tile-image-pfw-added" style="background-image: url('/news/images/Mastodon-Leaves.jpg');">
									</div>
								</div> <!--/small-12 medium-6 columns-->
							</div> <!--/row full-width collapse-->
						</div> <!--/home-news-tile -->
					</a>
				</div> <!--/"medium-12 large-6 columns-->
				<!-- /News Item -->
			</div> <!--/row full-width-->
			<div class="row full-width" data-equalizer>

				<!-- ITEM 3 -->
				<!-- News Item -->
				<div class="custom-large-break columns">
					<a href="/news/detail.html?id=a3a7afab-82ed-4f75-b3da-047fa3cd1418"> 						<div class="home-news-tile" data-equalizer-watch>
							<div class="row full-width collapse">
								<div class="custom-medium-break columns custom-hide-for-medium-only">
									<div class="cover-bgimage expand-full-size tile-equalize-height-pfw-added tile-image-pfw-added" style="background-image: url('/news/images/Kyler Hudson-homepage.jpg');">
									</div>
								</div> <!--/small-12 medium-6 columns-->
								<div class="custom-medium-break columns tile-equalize-height-pfw-added">
									<div class="tile-content">
										<div class="tile-type">
										<i class="fa fa-newspaper-o" aria-hidden="true"></i>
										News
										</div> <!--/tile-type-->
										<div class="tile-title">
											Four Fulbright Scholars in Four Years
										</div> <!--/tile-title-->
										<p>
											Purdue Fort Wayne has produced four Fulbright Scholars in four years. Kyler Hudson, Nathaniel Brophy, Cody Fuelling, and Alexander Allison travel the world to conduct research and teach English.
										</p>
									</div> <!--/tile-content-->
								</div> <!--/small-12 medium-6 columns-->
								<div class="custom-medium-break columns custom-show-for-medium-only">
									<div class="cover-bgimage expand-full-size tile-equalize-height-pfw-added tile-image-pfw-added" style="background-image: url('/news/images/Kyler Hudson-homepage.jpg');">
									</div>
								</div> <!--/small-12 medium-6 columns-->
							</div> <!--/row full-width collapse-->
						</div> <!--/home-news-tile -->
					</a>
				</div> <!--/"medium-12 large-6 columns-->
				<!-- /News Item -->

				<!-- ITEM 4 -->
				<!-- Event Item -->
				<div class="custom-large-break columns">
					<a href="https://calendar.pfw.edu/events/women-s-basketball-vs-iu-kokomo-11620181100AM"> 						<div class="home-event-tile" data-equalizer-watch>
							<div class="row full-width collapse">
								<div class="custom-medium-break columns">
										<div class="cover-bgimage expand-full-size tile-equalize-height-pfw-added tile-image-pfw-added" style="background-image: url('/contentAsset/raw-data/763ab535-e02f-4c01-b537-51f5fbf9f33e/newsAndEventsWidgetImage');">
										</div>
								</div> <!--/small-12 medium-6 columns-->
								<div class="custom-medium-break columns tile-equalize-height-pfw-added">
									<div class="tile-content">
										<div class="tile-type">
										<i class="fa fa-newspaper-o" aria-hidden="true"></i>
										Event
										</div> <!--/tile-type-->
										<div class="tile-title">
											Women's Basketball vs. IU Kokomo
										</div> <!--/tile-title-->
										<p>
											Season number three under head coach Niecee Nelson gets underway when women's basketball hosts IU Kokomo for their annual Youth Day.
										</p>
									</div> <!--/tile-content-->
								</div> <!--/small-12 medium-6 columns-->
							</div> <!--/row full-width collapse-->
						</div> <!--/home-event-tile -->
					</a>
				</div> <!--/"medium-12 large-6 columns-->
				<!-- /Event Item -->

		</div> <!--/row full-width-->
	</div> <!--/tile-wrapper-->
</div> <!--/news-events-home-->
   
		    </div>
        </main>
        </div> <!-- end .above-footer-wrapper-pfw-added -->
		<footer>
                                       		 




 
            			            			            			            			            			            			            			            			            			            			            			            			            			            			            			            			            			            			            			            			            			            			
<div class="footer-margin--pfw-added" style="color: black;">


      
  
      
              
        
          
 

 
	
				
			



 




		<div class="sme-cta cover-bgimage"
	data-interchange="
	[/images/footer-hero-banners/footer-1008-640x360.jpg, small],
	[/images/footer-hero-banners/footer-1008-1024x576.jpg, medium],
	[/images/footer-hero-banners/footer-1008-1200x675.jpg, large],
	[/images/footer-hero-banners/footer-1008-1440x810.jpg, xlarge],
	[/images/footer-hero-banners/footer-1008-2000x1125.jpg, xxlarge],
	[/images/footer-hero-banners/footer-1008-2500x1406.jpg, xxxlarge]" data-campaign="Schedule Your Visit">
	    <span class="show-for-sr" role="img" aria-label="Students walking at the start of fall classes"></span>
	    <div class="contents">

	        <div class="sme-cta-title">
	    		<a href="/visit/">Schedule your visit</a>
			</div>

			
			
			 			
			 			
			 			
			 			
			
			
							<div class="cta-items">
					<ul>
						 							<li><a href="https://apply.pfw.edu/apply/">Apply Now</a></li>
						 							<li><a href="https://purdue.ca1.qualtrics.com/jfe/form/SV_07cUg3L5FNR4YNn">Find Your Scholarship</a></li>
						 							<li><a href="/admissions/">Get Started</a></li>
						 							<li><a href="/admissions/counselors/">Connect with an Admissions Counselor</a></li>
											</ul>
				</div>
					</div>
	</div>
 
      
      
  
  	
    <!-- bannerType is Evergreen -->
 </div> <!-- end .footer-margin--pfw-added -->
   
						      
  
              	    	    		  		  	  	  		  		  		  	      
              
        
          <!-- Begin footer.vtl-->
  
  
              	    	    		  		  	  	  		  		  		  	      
              
        
          <!--Begin footer_navigation.vtl-->
<div class="row full-width collapse footer-columns">
    <div class="small-12 large-3 columns">

        <!-- SMALL/MEDIUM -->
        <ul class="accordion hide-for-large" data-accordion data-allow-all-closed="true">
            <li class="footer__link--heading accordion-item" data-accordion-item><a href="#" class="accordion-title first-accordion-title">Browse and Search</a>
                <div class="accordion-content" data-tab-content>
                    <ul>
                        <li><a class="footer__list-item" href="/search/a-z.html">A&ndash;Z</a></li>
                        <li><a class="footer__list-item" href="/search/people/">People</a></li>
                        <li><a class="footer__list-item" href="/search/">Site Search</a></li>
                        <li><a class="footer__list-item" href="/jobs/">Jobs</a></li>
                        <li><a class="footer__list-item" href="/academics/programs/">Programs</a></li>
                        <li><a class="footer__list-item" href="/classes/">Class Schedule</a></li>
                    </ul>
                </div>
            </li>
        </ul>
        
        <!-- LARGE+ -->
        <div class="footer__link--heading show-for-large">Browse and Search</div>
        <ul class="menu vertical two-columns desktop-links show-for-large">
            <li><a class="footer__list-item" href="/search/a-z.html">A&ndash;Z</a></li>
            <li><a class="footer__list-item" href="/search/people/">People</a></li>
            <li><a class="footer__list-item" href="/search/">Site Search</a></li>
            <li><a class="footer__list-item" href="/jobs/">Jobs</a></li>
            <li><a class="footer__list-item" href="/academics/programs/">Programs</a></li>
            <li><a class="footer__list-item" href="/classes/">Class Schedule</a></li>
        </ul>
    </div>
    
    <div class="small-12 large-3 columns">
    
        <!-- SMALL/MEDIUM -->
        <ul class="accordion hide-for-large" data-accordion data-allow-all-closed="true">
            <li class="footer__link--heading accordion-item" data-accordion-item><a href="#" class="accordion-title">Helpful Resources</a>
                <div class="accordion-content" data-tab-content>
                    <ul>
                        <li class="footer__list-item"><a href="https://go.pfw.edu">goPFW</a></li>
                        <li class="footer__list-item"><a href="/blackboard/">Blackboard</a></li>
                        <li class="footer__list-item"><a href="https://library.pfw.edu">Helmke Library</a></li>
                        <li class="footer__list-item"><a href="/its/">IT Services</a></li>
                        <li class="footer__list-item"><a href="/emergency/">Emergency</a></li>
                        <li class="footer__list-item"><a href="http://catalog.pfw.edu">Catalogs</a></li>
                        <li class="footer__list-item"><a href="/registrar/">Registrar</a></li>
                        <li class="footer__list-item"><a href="/employees/">For Employees</a></li>
                        <li class="footer__list-item"><a href="/media/">Media Relations</a></li>
                        <li class="footer__list-item"><a href="/financial/">Pay for College</a></li>
                    </ul>
                </div>
            </li>
        </ul>
        
        <!-- LARGE+ -->
        <div class="footer__link--heading show-for-large">Helpful Resources</div>
        <ul class="menu vertical two-columns desktop-links show-for-large">
            <li class="footer__list-item"><a href="https://go.pfw.edu">goPFW</a></li>
                        <li class="footer__list-item"><a href="/blackboard/">Blackboard</a></li>
                        <li class="footer__list-item"><a href="https://library.pfw.edu">Helmke Library</a></li>
                        <li class="footer__list-item"><a href="/its/">IT Services</a></li>
                        <li class="footer__list-item"><a href="/emergency/">Emergency</a></li>
                        <li class="footer__list-item"><a href="http://catalog.pfw.edu">Catalogs</a></li>
                        <li class="footer__list-item"><a href="/registrar/">Registrar</a></li>
                        <li class="footer__list-item"><a href="/employees/">For Employees</a></li>
                        <li class="footer__list-item"><a href="/media/">Media Relations</a></li>
                        <li class="footer__list-item"><a href="/financial/">Pay for College</a></li>
        </ul>
    </div>
    
    <div class="small-12 large-3 columns">
    
        <!-- SMALL/MEDIUM -->
        <ul class="accordion hide-for-large" data-accordion data-allow-all-closed="true">
            <li class="footer__link--heading accordion-item" data-accordion-item><a href="#" class="accordion-title last-accordion">Connect With Us</a>
                <div class="accordion-content" data-tab-content>
                    <ul>
                        <li class="footer__list-item"><a href="/news">News</a></li>
                        <li class="footer__list-item"><a href="/events/">Events</a></li>
                        <li class="footer__list-item"><a href="https://gomastodons.com/">Mastodons</a></li>
                        <li class="footer__list-item"><a href="/give/">Give</a></li>
                    </ul>
                </div>
            </li>
        </ul>
        
        <!-- LARGE+ -->
        <div class="footer__link--heading show-for-large">Connect With Us</div>
        <ul class="menu vertical desktop-links show-for-large">
            <li class="footer__list-item"><a href="/news">News</a></li>
                        <li class="footer__list-item"><a href="/events/">Events</a></li>
                        <li class="footer__list-item"><a href="https://gomastodons.com/">Mastodons</a></li>
                        <li class="footer__list-item"><a href="/give/">Give</a></li>
        </ul>
        <!--Social-->
        <div class="footer__social show-for-large">
                <span class="show-for-sr">Visit us on Social Media:</span>
                <div class="footer__social-list row expanded">
                    <div class="footer__social-list-item small-2 columns">
                        <a href="/facebook">
                            <i class="fa fa-facebook" title="Facebook" aria-hidden="true"></i>
                        </a>
                    </div>
                    <div class="footer__social-list-item small-2 columns">
                        <a href="/twitter">
                            <i class="fa fa-twitter" title="Twitter"  aria-hidden="true"></i>
                        </a>
                    </div>
                    <div class="footer__social-list-item small-2 columns">
                        <a href="/instagram">
                            <i class="fa fa-instagram" title="Instagram"  aria-hidden="true"></i>
                        </a>
                    </div>
                    <div class="footer__social-list-item small-2 columns">
                        <a href="/linkedin">
                            <i class="fa fa-linkedin" title="LinkedIn"  aria-hidden="true"></i>
                        </a>
                    </div>
                    <div class="footer__social-list-item small-2 columns">
                        <a href="/youtube">
                            <i class="fa fa-youtube-play" title="YouTube"  aria-hidden="true"></i>
                        </a>
                    </div>
                    <div class="footer__social-list-item small-2 columns">
                        <a href="/about/social/">
                            <i class="fa fa-plus" title="More"  aria-hidden="true"></i>
                        </a>
                    </div>
                </div>
            </div>
        <!--/Social-->
    </div>
    
    <div class="small-12 large-3 columns show-for-large">
        <div class="footer__contact-info">
            <div>
            <a href="/">
                <img src="/application/themes/modernization-1.0/img/pfw-white.png" alt="Purdue University Fort Wayne Logo" class="footer__img" />
            </a>
            </div>
            <div>
            <p>
                2101 E. Coliseum Blvd.
                <br />
                Fort Wayne, IN 46805
                <br />
                <a href="tel:260-481-4739">260-481-4739</a>
            </p>
            </div>
        </div>

    </div>
</div>
<!--End footer_navigation.vtl-->
      
      
  
  
<hr class="footer__hr" />
<div class="row full-width collapse footer-bottom-pfw-added-gtm">
        <!--Social-->
        <div class="footer__social hide-for-large">
                <span class="show-for-sr">Visit us on Social Media:</span>
                                <div class="footer__social-list">
                    <div class="footer__social-list-item small-2 columns">
                        <a href="/facebook">
                            <i class="fa fa-facebook" title="Facebook" aria-hidden="true"></i>
                        </a>
                    </div>
                    <div class="footer__social-list-item small-2 columns">
                        <a href="/twitter">
                            <i class="fa fa-twitter" title="Twitter"  aria-hidden="true"></i>
                        </a>
                    </div>
                    <div class="footer__social-list-item small-2 columns">
                        <a href="/instagram">
                            <i class="fa fa-instagram" title="Instagram"  aria-hidden="true"></i>
                        </a>
                    </div>
                    <div class="footer__social-list-item small-2 columns">
                        <a href="/linkedin">
                            <i class="fa fa-linkedin" title="LinkedIn"  aria-hidden="true"></i>
                        </a>
                    </div>
                    <div class="footer__social-list-item small-2 columns">
                        <a href="/youtube">
                            <i class="fa fa-youtube-play" title="YouTube"  aria-hidden="true"></i>
                        </a>
                    </div>
                    <div class="footer__social-list-item small-2 columns">
                        <a href="/about/social/">
                            <i class="fa fa-plus" title="More"  aria-hidden="true"></i>
                        </a>
                    </div>
                </div>
            </div>
        <!--/Social-->
    <div class="small-12 columns footer__copyright">
            <ul class="footer__last_links hide-for-large">
                <li><a href="/about/contact/">Contact Us</a></li>
                <li><a href="/licensing">Trademarks and Licensing</a></li>
                <li><a href="/website-feedback">Website Feedback</a></li>
            </ul>
        &copy; 2018 Purdue University Fort Wayne. All rights reserved. An equal access/equal opportunity university. A Carnegie Community Engaged University.
        <div class="break"></div>
        If you have trouble accessing this page because of a disability, please email <a class="footer-link" href="/hr-oie/">Human Resources and Office of Institutional Equity</a> at <a class="footer-link" href="mailto:accessibility@pfw.edu">accessibility@pfw.edu</a>.
        <ul class="footer__last_links show-for-large">
            <li><a href="/about/contact/">Contact Us</a></li>
            <li><a href="/licensing">Trademarks and Licensing</a></li>
            <li><a href="/website-feedback">Website Feedback</a></li>
        </ul>

        <div class="footer__contact-info hide-for-large">
            <div>
            <a href="/">
                <img src="/application/themes/modernization-1.0/img/pfw-white.png" alt="Purdue University Fort Wayne Logo" class="footer__img" />
            </a>
            </div>
            <div>
            <p>
                2101 E. Coliseum Blvd.
                <br />
                Fort Wayne, IN 46805
                <br />
                <a href="tel:260-481-4739">260-481-4739</a>
            </p>
            </div>
        </div>
    </div>
</div>
<!-- End footer.vtl-->
      
      
  
  					</footer>

          
  
              	    	    		  		  	  	  		  		  		  	      
              
        
          
<script src="//www.pfw.edu/application/themes/modernization-1.0/assets/bower_components/jquery/dist/jquery.min.js"></script>
<script src='https://cdnjs.cloudflare.com/ajax/libs/moment.js/2.19.1/moment.min.js'></script>
<script src="//www.pfw.edu/application/themes/modernization-1.0/assets/bower_components/what-input/dist/what-input.min.js"></script>
<script src="//www.pfw.edu/application/themes/modernization-1.0/assets/bower_components/foundation-sites/dist/js/foundation.min.js"></script>
<script>
    Foundation.Interchange.SPECIAL_QUERIES['xxxlarge'] = 'screen and (min-width: 2000px)'; //add 3xl size to interchange - class name can't start with a number
</script>
<script src="//www.pfw.edu/application/themes/modernization-1.0/assets/vendor/foundation/js/app-min.js?mod=0817181030AM"></script>
<script src="//www.pfw.edu/application/themes/modernization-1.0/js/jquery.matchHeight.js"></script> <!-- PFW Added -->
<script src="//www.pfw.edu/application/themes/modernization-1.0/js/pfw_phase_one.js"></script> <!-- PFW Added -->
      
      
  
  	
	</body>
</html>

 